<?xml version="1.0" encoding="utf-8"?>
<svg version="1.1" id="Capa_1" xmlns="http://www.w3.org/2000/svg" xmlns:xlink="http://www.w3.org/1999/xlink" x="0px" y="0px"
	 width="1200px" height="1200px" viewBox="0 0 1200 1200" enable-background="new 0 0 1200 1200" xml:space="preserve">
<g>
	<g>
		<g>
			<path fill="#010101" d="M953.132,356.203c-28.949-84.62-65.942-172.485-203.766-241.094
				c-49.525-24.648-123.869-29.872-123.869-29.872L599.051,50l-26.452,35.238c0,0-74.342,5.223-123.869,29.872
				C310.91,183.716,273.915,271.583,244.964,356.203c-28.949,84.617-17.813,165.906-17.813,165.906s-2.812-21.647,11.119-88.982
				c15.237-73.652,86.918-160.074,188.192-176.027c98.166-15.457,172.588,20.047,172.588,20.047s74.421-35.504,172.584-20.047
				c101.272,15.953,172.953,102.374,188.195,176.027c13.929,67.335,11.119,88.982,11.119,88.982S982.086,440.82,953.132,356.203z"/>
		</g>
		<g>
			<path fill="#010101" d="M782.452,593.646c-14.992-43.834-34.153-89.345-105.542-124.883
				c-25.654-12.767-64.16-15.472-64.16-15.472l-13.699-18.254l-13.704,18.254c0,0-38.504,2.704-64.157,15.472
				c-71.39,35.538-90.551,81.049-105.549,124.883c-14.995,43.835-9.227,85.935-9.227,85.935s-1.455-11.216,5.765-46.089
				c7.891-38.159,45.018-82.918,97.474-91.18c50.848-8.008,89.4,10.379,89.4,10.379s38.545-18.386,89.397-10.379
				c52.453,8.26,89.582,53.021,97.476,91.18c7.215,34.873,5.76,46.089,5.76,46.089S797.453,637.48,782.452,593.646z"/>
		</g>
		<g>
			<path fill="#010101" d="M690.437,716.234c-7.471-21.839-17.021-44.517-52.595-62.223c-12.779-6.363-31.967-7.705-31.967-7.705
				l-6.825-9.096l-6.829,9.096c0,0-19.187,1.341-31.971,7.705c-35.571,17.704-45.122,40.383-52.591,62.223
				c-7.473,21.842-4.601,42.823-4.601,42.823s-0.723-5.594,2.875-22.968c3.93-19.009,22.431-41.32,48.568-45.433
				c25.336-3.994,44.547,5.177,44.547,5.177s19.206-9.171,44.545-5.177c26.133,4.112,44.634,26.425,48.567,45.433
				c3.597,17.374,2.87,22.968,2.87,22.968S697.907,738.077,690.437,716.234z"/>
		</g>
		<g>
			<path fill="#010101" d="M720.368,496.26c0,0,7.259-11.857,5.632-41.224c-1.634-29.378-14.465-84.755-63.357-128.589
				c-37.494-33.621-54.142-45.37-63.593-49.3c-9.458,3.931-26.099,15.679-63.595,49.3c-48.896,43.834-61.726,99.212-63.357,128.589
				c-1.631,29.366,5.632,41.224,5.632,41.224s-1.843-5.661-3.345-21.317c-2.948-30.658,14.036-79.633,47.324-111.297
				c33.287-31.656,77.341-27.416,77.341-27.416s44.048-4.241,77.337,27.416c33.29,31.664,50.272,80.639,47.329,111.297
				C722.208,490.598,720.368,496.26,720.368,496.26z"/>
		</g>
		<g>
			<path fill="#010101" d="M665.68,673.032c0,0,3.989-6.509,3.093-22.636c-0.896-16.137-7.942-46.554-34.794-70.627
				c-20.592-18.463-29.736-24.921-34.926-27.079c-5.193,2.158-14.337,8.616-34.93,27.079c-26.854,24.073-33.899,54.49-34.795,70.627
				c-0.897,16.127,3.09,22.636,3.09,22.636s-1.012-3.11-1.839-11.703c-1.618-16.841,7.711-43.739,25.992-61.129
				c18.287-17.384,42.481-15.059,42.481-15.059s24.189-2.326,42.474,15.059c18.283,17.39,27.608,44.287,25.994,61.129
				C666.69,669.922,665.68,673.032,665.68,673.032z"/>
		</g>
		<g>
			<path fill="#010101" d="M621.618,736.391c0,0,1.348-2.206,1.046-7.669c-0.298-5.464-2.689-15.763-11.785-23.925
				c-6.976-6.254-10.072-8.443-11.829-9.17c-1.764,0.727-4.856,2.916-11.833,9.17c-9.098,8.161-11.481,18.461-11.787,23.925
				c-0.304,5.463,1.05,7.669,1.05,7.669s-0.344-1.055-0.625-3.967c-0.548-5.705,2.611-14.817,8.803-20.701
				c6.193-5.892,14.392-5.104,14.392-5.104s8.193-0.788,14.387,5.104c6.193,5.884,9.351,14.996,8.801,20.701
				C621.964,735.336,621.618,736.391,621.618,736.391z"/>
		</g>
		<g>
			<path fill="#010101" d="M289.829,584.993c0,34.735-28.154,62.89-62.885,62.89c-34.735,0-62.886-28.154-62.886-62.89
				c0-34.728,28.151-62.884,62.886-62.884C261.675,522.109,289.829,550.266,289.829,584.993z"/>
		</g>
		<g>
			<path fill="#010101" d="M271.196,699.399c0,24.438-19.813,44.246-44.252,44.246c-24.444,0-44.255-19.809-44.255-44.246
				c0-24.448,19.811-44.257,44.255-44.257C251.383,655.143,271.196,674.951,271.196,699.399z"/>
		</g>
		<g>
			<path fill="#010101" d="M259.827,783.791c0,18.164-14.722,32.893-32.883,32.893c-18.165,0-32.889-14.729-32.889-32.893
				c0-18.161,14.724-32.883,32.889-32.883C245.105,750.908,259.827,765.629,259.827,783.791z"/>
		</g>
		<g>
			<circle fill="#010101" cx="226.943" cy="844.815" r="20.875"/>
		</g>
		<g>
			<path fill="#010101" d="M240.4,886.402c0,7.441-6.023,13.467-13.456,13.467s-13.459-6.024-13.459-13.467
				c0-7.428,6.026-13.453,13.459-13.453S240.4,878.975,240.4,886.402z"/>
		</g>
		<g>
			<path fill="#010101" d="M235.948,916.139c0,4.965-4.027,9.002-9.004,9.002s-9.009-4.037-9.009-9.002
				c0-4.98,4.032-9.017,9.009-9.017S235.948,911.158,235.948,916.139z"/>
		</g>
		<g>
			<path fill="#010101" d="M1035.941,584.993c0,34.735-28.158,62.89-62.888,62.89c-34.733,0-62.885-28.154-62.885-62.89
				c0-34.728,28.153-62.884,62.885-62.884C1007.783,522.109,1035.941,550.266,1035.941,584.993z"/>
		</g>
		<g>
			<path fill="#010101" d="M1017.307,699.399c0,24.438-19.811,44.246-44.253,44.246c-24.441,0-44.255-19.809-44.255-44.246
				c0-24.448,19.813-44.257,44.255-44.257C997.496,655.143,1017.307,674.951,1017.307,699.399z"/>
		</g>
		<g>
			<path fill="#010101" d="M1005.938,783.791c0,18.164-14.723,32.893-32.885,32.893c-18.164,0-32.886-14.729-32.886-32.893
				c0-18.161,14.722-32.883,32.886-32.883C991.216,750.908,1005.938,765.629,1005.938,783.791z"/>
		</g>
		<g>
			<circle fill="#010101" cx="973.053" cy="844.815" r="20.875"/>
		</g>
		<g>
			<path fill="#010101" d="M986.513,886.402c0,7.441-6.023,13.467-13.459,13.467s-13.458-6.024-13.458-13.467
				c0-7.428,6.022-13.453,13.458-13.453S986.513,878.975,986.513,886.402z"/>
		</g>
		<g>
			<path fill="#010101" d="M982.061,916.139c0,4.965-4.031,9.002-9.007,9.002s-9.006-4.037-9.006-9.002
				c0-4.98,4.03-9.017,9.006-9.017C978.027,907.123,982.061,911.158,982.061,916.139z"/>
		</g>
		<g>
			<path fill="#010101" d="M661.937,809.854c0,34.736-28.159,62.888-62.886,62.888c-34.734,0-62.887-28.152-62.887-62.888
				c0-34.73,28.153-62.89,62.887-62.89C633.777,746.965,661.937,775.124,661.937,809.854z"/>
		</g>
		<g>
			<path fill="#010101" d="M643.302,924.257c0,24.438-19.809,44.253-44.251,44.253c-24.441,0-44.254-19.815-44.254-44.253
				c0-24.444,19.813-44.251,44.254-44.251C623.493,880.006,643.302,899.813,643.302,924.257z"/>
		</g>
		<g>
			<path fill="#010101" d="M631.935,1008.655c0,18.159-14.726,32.884-32.884,32.884c-18.164,0-32.888-14.725-32.888-32.884
				c0-18.164,14.724-32.881,32.888-32.881C617.209,975.773,631.935,990.49,631.935,1008.655z"/>
		</g>
		<g>
			<path fill="#010101" d="M619.922,1069.676c0,11.531-9.342,20.87-20.871,20.87c-11.53,0-20.878-9.339-20.878-20.87
				c0-11.534,9.347-20.875,20.878-20.875C610.58,1048.801,619.922,1058.142,619.922,1069.676z"/>
		</g>
		<g>
			<path fill="#010101" d="M612.508,1111.269c0,7.433-6.026,13.46-13.457,13.46c-7.433,0-13.463-6.026-13.463-13.46
				c0-7.43,6.028-13.463,13.463-13.463C606.481,1097.806,612.508,1103.839,612.508,1111.269z"/>
		</g>
		<g>
			<path fill="#010101" d="M608.058,1140.993c0,4.977-4.036,9.007-9.007,9.007c-4.977,0-9.006-4.03-9.006-9.007
				s4.028-9.01,9.006-9.01C604.021,1131.985,608.058,1136.018,608.058,1140.993z"/>
		</g>
		<g>
			<circle fill="#010101" cx="406.147" cy="711.107" r="34.861"/>
		</g>
		<g>
			<path fill="#010101" d="M430.681,774.529c0,13.551-10.98,24.53-24.531,24.53s-24.534-10.979-24.534-24.53
				c0-13.554,10.983-24.536,24.534-24.536C419.699,749.993,430.681,760.978,430.681,774.529z"/>
		</g>
		<g>
			<path fill="#010101" d="M424.377,821.314c0,10.07-8.157,18.23-18.228,18.23s-18.23-8.16-18.23-18.23
				c0-10.073,8.158-18.23,18.23-18.23C416.219,803.084,424.377,811.241,424.377,821.314z"/>
		</g>
		<g>
			<path fill="#010101" d="M417.718,855.146c0,6.386-5.179,11.569-11.568,11.569c-6.394,0-11.573-5.184-11.573-11.569
				c0-6.394,5.18-11.574,11.573-11.574C412.539,843.571,417.718,848.752,417.718,855.146z"/>
		</g>
		<g>
			<path fill="#010101" d="M517.795,773.121c0,8.15-6.602,14.75-14.748,14.75c-8.147,0-14.75-6.601-14.75-14.75
				c0-8.146,6.604-14.744,14.75-14.744C511.193,758.378,517.795,764.976,517.795,773.121z"/>
		</g>
		<g>
			<path fill="#010101" d="M512.406,800.486c0,5.181-4.189,9.368-9.362,9.368c-5.171,0-9.364-4.188-9.364-9.368
				c0-5.162,4.193-9.356,9.364-9.356C508.217,791.13,512.406,795.324,512.406,800.486z"/>
		</g>
		<g>
			<path fill="#010101" d="M709.868,773.121c0,8.15-6.604,14.75-14.75,14.75c-8.142,0-14.746-6.601-14.746-14.75
				c0-8.146,6.605-14.744,14.746-14.744C703.265,758.378,709.868,764.976,709.868,773.121z"/>
		</g>
		<g>
			<path fill="#010101" d="M704.482,800.486c0,5.181-4.191,9.368-9.364,9.368c-5.172,0-9.362-4.188-9.362-9.368
				c0-5.162,4.19-9.356,9.362-9.356C700.291,791.13,704.482,795.324,704.482,800.486z"/>
		</g>
		<g>
			<circle fill="#010101" cx="792.775" cy="711.107" r="34.861"/>
		</g>
		<g>
			<path fill="#010101" d="M817.309,774.529c0,13.551-10.984,24.53-24.531,24.53c-13.552,0-24.536-10.979-24.536-24.53
				c0-13.554,10.984-24.536,24.536-24.536C806.324,749.993,817.309,760.978,817.309,774.529z"/>
		</g>
		<g>
			<path fill="#010101" d="M811.008,821.314c0,10.07-8.162,18.23-18.23,18.23c-10.071,0-18.232-8.16-18.232-18.23
				c0-10.073,8.16-18.23,18.232-18.23C802.845,803.084,811.008,811.241,811.008,821.314z"/>
		</g>
		<g>
			<path fill="#010101" d="M804.349,855.146c0,6.386-5.183,11.569-11.571,11.569c-6.393,0-11.575-5.184-11.575-11.569
				c0-6.394,5.183-11.574,11.575-11.574C799.166,843.571,804.349,848.752,804.349,855.146z"/>
		</g>
	</g>
</g>
</svg>